geometry_program GPTest/Swizzle_GP_CG cg
{
	source SwizzleGP.cg
	entry_point gs_swizzle
	profiles gp4gp gpu_gp
}

material GPTest/SwizzleCG
{
	technique
	{
		pass SwizzleCGPass
		{
			geometry_program_ref GPTest/Swizzle_GP_CG
			{
			
			}
		}
	}
}